[gd_scene load_steps=4 format=1]

[ext_resource path="res://scenes/rock.tscn" type="PackedScene" id=1]
[ext_resource path="res://sprites/clay.png" type="Texture" id=2]

[sub_resource type="CircleShape2D" id=1]

custom_solver_bias = 0.0
radius = 54.5813

[node name="clay" instance=ExtResource( 1 )]

[node name="sprite" parent="."]

texture = ExtResource( 2 )

[node name="shape" parent="."]

transform/pos = Vector2( 0.238876, 1.26359 )
shape = SubResource( 1 )


